<?xml version="1.0" encoding="utf-8"?>
<!-- Generator: Adobe Illustrator 16.0.3, SVG Export Plug-In . SVG Version: 6.00 Build 0)  -->
<!DOCTYPE svg PUBLIC "-//W3C//DTD SVG 1.1//EN" "http://www.w3.org/Graphics/SVG/1.1/DTD/svg11.dtd">
<svg version="1.1" id="Capa_1" xmlns="http://www.w3.org/2000/svg" xmlns:xlink="http://www.w3.org/1999/xlink" x="0px" y="0px"
	 width="82.5px" height="85.5px" viewBox="0 0 82.5 85.5" enable-background="new 0 0 82.5 85.5" xml:space="preserve">
<path fill="#FFFFFF" stroke="#000000" stroke-width="2" stroke-miterlimit="10" d="M77.857,43.33
	c0,19.927-16.157,36.083-36.084,36.083C21.844,79.413,5.69,63.257,5.69,43.33c0-19.93,16.153-36.083,36.083-36.083
	C61.7,7.247,77.857,23.4,77.857,43.33"/>
<rect x="26.607" y="42.069" fill="#2A3746" width="30.334" height="2.522"/>
</svg>
